<svg 
 xmlns="http://www.w3.org/2000/svg"
 xmlns:xlink="http://www.w3.org/1999/xlink"
 width="1457px" height="601px">
<defs>
<filter filterUnits="userSpaceOnUse" id="Filter_0" x="0px" y="0px" width="1457px" height="601px"  >
    <feOffset in="SourceAlpha" dx="0" dy="16" />
    <feGaussianBlur result="blurOut" stdDeviation="6.782" />
    <feFlood flood-color="rgb(0, 0, 0)" result="floodOut" />
    <feComposite operator="atop" in="floodOut" in2="blurOut" />
    <feComponentTransfer><feFuncA type="linear" slope="0.03"/></feComponentTransfer>
    <feMerge>
    <feMergeNode/>
    <feMergeNode in="SourceGraphic"/>
  </feMerge>
</filter>

</defs>
<g filter="url(#Filter_0)">
<path fill-rule="evenodd"  fill="rgb(255, 255, 255)"
 d="M45.000,28.999 L1411.000,28.999 L1411.000,538.999 L45.000,538.999 L45.000,28.999 Z"/>
</g>
<path fill-rule="evenodd"  fill="rgb(255, 208, 51)"
 d="M1323.000,29.000 L1411.000,29.000 L1411.000,102.000 L1323.000,102.000 L1323.000,29.000 Z"/>
<path fill-rule="evenodd"  fill="rgb(255, 208, 51)"
 d="M1264.000,100.999 L1411.000,100.999 L1411.000,174.000 L1264.000,174.000 L1264.000,100.999 Z"/>
<path fill-rule="evenodd"  fill="rgb(255, 208, 51)"
 d="M1198.000,174.000 L1411.000,174.000 L1411.000,256.999 L1198.000,256.999 L1198.000,174.000 Z"/>
<path fill-rule="evenodd"  fill="rgb(230, 240, 244)"
 d="M43.000,137.999 L351.000,137.999 L351.000,539.999 L43.000,539.999 L43.000,137.999 Z"/>
<path fill-rule="evenodd"  fill="rgb(230, 240, 244)"
 d="M422.000,89.999 L427.000,89.999 L427.000,538.999 L422.000,538.999 L422.000,89.999 Z"/>
<path fill-rule="evenodd"  fill="rgb(230, 240, 244)"
 d="M43.000,89.999 L426.000,89.999 L426.000,94.999 L43.000,94.999 L43.000,89.999 Z"/>
<path fill-rule="evenodd"  fill="rgb(208, 46, 46)"
 d="M1351.000,235.999 L1356.000,235.999 L1356.000,538.999 L1351.000,538.999 L1351.000,235.999 Z"/>
<path fill-rule="evenodd"  fill="rgb(230, 240, 244)"
 d="M1007.909,478.998 L1043.158,478.998 L1042.858,478.998 L1009.314,444.785 L1126.595,444.785 L1410.995,444.785 L1410.995,418.994 L1410.995,419.375 L1126.595,419.375 L1126.595,418.994 L1008.189,418.994 L1004.732,418.994 L981.009,418.994 L981.009,451.483 L981.083,451.483 L1007.909,478.998 Z"/>
<path fill-rule="evenodd"  fill="rgb(208, 46, 46)"
 d="M458.000,230.999 L1356.000,230.999 L1356.000,235.999 L458.000,235.999 L458.000,230.999 Z"/>
<path fill-rule="evenodd"  fill="rgb(208, 46, 46)"
 d="M455.000,28.999 L460.000,28.999 L460.000,235.999 L455.000,235.999 L455.000,28.999 Z"/>
<path fill-rule="evenodd"  fill="rgb(230, 240, 244)"
 d="M728.500,50.999 C859.115,50.999 965.000,156.883 965.000,287.500 C965.000,418.115 859.115,523.998 728.500,523.998 C597.885,523.998 492.000,418.115 492.000,287.500 C492.000,156.883 597.885,50.999 728.500,50.999 Z"/>
<text kerning="auto" font-family="Montserrat" fill="rgb(68, 68, 68)" transform="matrix( 2.39049074119988, 0, 0, 2.39095187226789,600.131455007848, 210.943842295983)" font-weight="bold" font-size="14.639px"> <tspan>&#1059;&#1088;&#1072;&#44;&#32;&#1086;&#1090;&#1082;&#1088;&#1099;&#1090;&#1080;&#1077;&#33;</tspan><tspan x="0" dy="1.286em">&#50;&#48;&#32;&#1072;&#1087;&#1088;&#1077;&#1083;&#1103;&#32;&#1074;&#32;&#49;&#56;&#58;&#48;&#48;</tspan><tspan x="0" dy="1.286em">&#1091;&#1083;&#46;&#32;&#1051;&#1077;&#1085;&#1080;&#1085;&#1072;&#44;&#32;&#51;&#49;</tspan><tspan x="0" dy="1.286em">&#56;&#32;&#1101;&#1090;&#1072;&#1078;</tspan><tspan x="0" dy="1.286em"> </tspan><tspan x="0" dy="1.286em"> </tspan>
</text>
<path fill-rule="evenodd"  fill="rgb(234, 44, 44)"
 d="M623.000,395.999 L833.000,395.999 L833.000,445.999 L623.000,445.999 L623.000,395.999 Z"/>
<text kerning="auto" font-family="Montserrat" fill="rgb(255, 255, 255)" transform="matrix( 2.39049074119988, 0, 0, 2.39095187226789,719.851237438442, 426.97737968067)" font-weight="bold" font-size="6.692px">&#1043;&#1086;</text>
<text kerning="auto" font-family="Montserrat" fill="rgb(230, 240, 244)" transform="matrix( 4.4761122200911, 0, 0, 4.48304751649519,1144.09513956511, 406.933024450188)" font-weight="bold" font-size="30.472px">&#1043;&#1086;&#33;</text>
<path fill-rule="evenodd"  fill="rgb(255, 208, 51)"
 d="M43.000,428.000 L389.000,428.000 L389.000,504.999 L43.000,504.999 L43.000,428.000 Z"/>
<path fill-rule="evenodd"  fill="rgb(221, 221, 221)"
 d="M559.000,576.747 L578.125,576.747 L578.125,581.748 L559.000,581.748 L559.000,576.747 Z"/>
<path fill-rule="evenodd"  fill="rgb(221, 221, 221)"
 d="M601.781,576.747 L620.906,576.747 L620.906,581.748 L601.781,581.748 L601.781,576.747 Z"/>
<path fill-rule="evenodd"  fill="rgb(221, 221, 221)"
 d="M644.500,576.747 L663.625,576.747 L663.625,581.748 L644.500,581.748 L644.500,576.747 Z"/>
<path fill-rule="evenodd"  fill="rgb(221, 221, 221)"
 d="M687.281,576.747 L706.406,576.747 L706.406,581.748 L687.281,581.748 L687.281,576.747 Z"/>
<path fill-rule="evenodd"  fill="rgb(234, 44, 44)"
 d="M730.000,570.997 L749.180,570.997 L749.180,575.997 L730.000,575.997 L730.000,570.997 Z"/>
<path fill-rule="evenodd"  fill="rgb(221, 221, 221)"
 d="M770.594,576.747 L789.718,576.747 L789.718,581.748 L770.594,581.748 L770.594,576.747 Z"/>
<path fill-rule="evenodd"  fill="rgb(221, 221, 221)"
 d="M813.375,576.747 L832.500,576.747 L832.500,581.748 L813.375,581.748 L813.375,576.747 Z"/>
<path fill-rule="evenodd"  fill="rgb(221, 221, 221)"
 d="M856.093,576.747 L875.218,576.747 L875.218,581.748 L856.093,581.748 L856.093,576.747 Z"/>
<path fill-rule="evenodd"  fill="rgb(221, 221, 221)"
 d="M898.874,576.747 L918.000,576.747 L918.000,581.748 L898.874,581.748 L898.874,576.747 Z"/>
</svg>